N048.21.45.961 E011.46.03.180 N048.22.00.790 E011.49.16.219 
N048.20.26.408 E011.45.03.661 N048.20.41.269 E011.48.16.610 
N048.25.39.000 E011.10.15.000 N048.31.15.000 E012.23.11.000
N048.31.15.000 E012.23.11.000 N048.30.24.504 E012.23.40.812
N048.30.24.504 E012.23.40.812 N048.29.33.360 E012.24.07.994
N048.29.33.360 E012.24.07.994 N048.28.41.617 E012.24.32.468
N048.28.41.617 E012.24.32.468 N048.27.49.337 E012.24.54.205
N048.27.49.337 E012.24.54.205 N048.26.56.585 E012.25.13.181
N048.26.56.585 E012.25.13.181 N048.26.03.425 E012.25.29.377
N048.26.03.425 E012.25.29.377 N048.25.09.921 E012.25.42.774
N048.25.09.921 E012.25.42.774 N048.24.16.139 E012.25.53.358
N048.24.16.139 E012.25.53.358 N048.23.22.144 E012.26.01.121
N048.23.22.144 E012.26.01.121 N048.22.28.000 E012.26.06.000
N048.22.28.000 E012.26.06.000 N048.21.38.383 E012.26.08.245
N048.21.38.383 E012.26.08.245 N048.20.48.743 E012.26.07.909
N048.20.48.743 E012.26.07.909 N048.19.59.134 E012.26.05.202
N048.19.59.134 E012.26.05.202 N048.19.09.608 E012.26.00.129
N048.19.09.608 E012.26.00.129 N048.18.20.214 E012.25.52.697
N048.18.20.214 E012.25.52.697 N048.17.31.003 E012.25.42.916
N048.17.31.003 E012.25.42.916 N048.16.42.000 E012.25.31.000
N048.16.42.000 E012.25.31.000 N048.11.08.000 E011.12.57.000
N048.11.08.000 E011.12.57.000 N048.11.53.284 E011.12.27.828
N048.11.53.284 E011.12.27.828 N048.12.39.241 E011.12.01.098
N048.12.39.241 E011.12.01.098 N048.13.25.760 E011.11.36.632
N048.13.25.760 E011.11.36.632 N048.14.12.789 E011.11.14.457
N048.14.12.789 E011.11.14.457 N048.15.00.280 E011.10.54.599
N048.15.00.280 E011.10.54.599 N048.15.48.180 E011.10.37.081
N048.15.48.180 E011.10.37.081 N048.16.36.438 E011.10.21.924
N048.16.36.438 E011.10.21.924 N048.17.25.003 E011.10.09.145
N048.17.25.003 E011.10.09.145 N048.18.13.821 E011.09.58.762
N048.18.13.821 E011.09.58.762 N048.19.02.841 E011.09.50.786
N048.19.02.841 E011.09.50.786 N048.19.52.000 E011.09.45.000
N048.19.52.000 E011.09.45.000 N048.20.41.720 E011.09.41.868
N048.20.41.720 E011.09.41.868 N048.21.31.481 E011.09.41.196
N048.21.31.481 E011.09.41.196 N048.22.21.230 E011.09.43.002
N048.22.21.230 E011.09.43.002 N048.23.10.911 E011.09.47.288
N048.23.10.911 E011.09.47.288 N048.24.00.470 E011.09.54.051
N048.24.00.470 E011.09.54.051 N048.24.49.852 E011.10.03.284
N048.24.49.852 E011.10.03.284 N048.25.39.000 E011.10.15.000
N048.29.49.000 E011.11.55.000 N048.34.07.000 E012.07.09.000
N048.34.24.273 E012.07.43.354 N048.34.40.912 E012.08.18.403
N048.34.40.912 E012.08.18.403 N048.34.56.662 E012.08.54.375
N048.34.56.662 E012.08.54.375 N048.35.11.501 E012.09.31.220
N048.35.11.501 E012.09.31.220 N048.35.25.408 E012.10.08.884
N048.35.25.408 E012.10.08.884 N048.35.38.364 E012.10.47.314
N048.35.38.364 E012.10.47.314 N048.35.50.349 E012.11.26.456
N048.35.50.349 E012.11.26.456 N048.36.01.347 E012.12.06.254
N048.36.01.347 E012.12.06.254 N048.36.11.342 E012.12.46.651
N048.36.11.342 E012.12.46.651 N048.36.20.319 E012.13.27.589
N048.36.20.319 E012.13.27.589 N048.36.28.267 E012.14.09.011
N048.36.28.267 E012.14.09.011 N048.36.35.173 E012.14.50.857
N048.36.35.173 E012.14.50.857 N048.36.41.027 E012.15.33.068
N048.36.41.027 E012.15.33.068 N048.36.45.822 E012.16.15.582
N048.36.45.822 E012.16.15.582 N048.36.49.550 E012.16.58.340
N048.36.49.550 E012.16.58.340 N048.36.52.207 E012.17.41.280
N048.36.52.207 E012.17.41.280 N048.36.53.787 E012.18.24.342
N048.36.53.787 E012.18.24.342 N048.36.54.290 E012.19.07.463
N048.36.54.290 E012.19.07.463 N048.36.53.714 E012.19.50.582
N048.36.53.714 E012.19.50.582 N048.36.52.060 E012.20.33.637
N048.36.52.060 E012.20.33.637 N048.36.49.331 E012.21.16.567
N048.36.49.331 E012.21.16.567 N048.36.45.530 E012.21.59.310
N048.36.45.530 E012.21.59.310 N048.36.40.663 E012.22.41.806
N048.36.40.663 E012.22.41.806 N048.36.34.737 E012.23.23.994
N048.36.34.737 E012.23.23.994 N048.36.27.760 E012.24.05.813
N048.36.27.760 E012.24.05.813 N048.36.19.743 E012.24.47.204
N048.36.19.743 E012.24.47.204 N048.36.10.696 E012.25.28.107
N048.36.10.696 E012.25.28.107 N048.36.00.632 E012.26.08.465
N048.36.00.632 E012.26.08.465 N048.35.49.567 E012.26.48.221
N048.35.49.567 E012.26.48.221 N048.35.37.515 E012.27.27.316
N048.35.37.515 E012.27.27.316 N048.35.24.495 E012.28.05.696
N048.35.24.495 E012.28.05.696 N048.35.10.524 E012.28.43.306
N048.35.10.524 E012.28.43.306 N048.34.55.622 E012.29.20.093
N048.34.55.622 E012.29.20.093 N048.34.39.811 E012.29.56.004
N048.34.39.811 E012.29.56.004 N048.34.23.113 E012.30.30.989
N048.34.23.113 E012.30.30.989 N048.34.05.553 E012.31.04.997
N048.34.05.553 E012.31.04.997 N048.33.47.154 E012.31.37.981
N048.33.47.154 E012.31.37.981 N048.33.27.944 E012.32.09.893
N048.33.27.944 E012.32.09.893 N048.33.07.949 E012.32.40.690
N048.33.07.949 E012.32.40.690 N048.32.47.000 E012.33.10.000
N048.32.47.000 E012.33.10.000 N048.30.25.000 E012.30.02.000
N048.30.25.000 E012.30.02.000 N048.29.29.887 E012.30.27.041
N048.29.29.887 E012.30.27.041 N048.28.34.229 E012.30.49.189
N048.28.34.229 E012.30.49.189 N048.27.38.126 E012.31.08.633
N048.27.38.126 E012.31.08.633 N048.26.41.638 E012.31.25.355
N048.26.41.638 E012.31.25.355 N048.25.44.822 E012.31.39.342
N048.25.44.822 E012.31.39.342 N048.24.47.736 E012.31.50.581
N048.24.47.736 E012.31.50.581 N048.23.50.440 E012.31.59.063
N048.23.50.440 E012.31.59.063 N048.22.53.000 E012.32.05.000
N048.22.53.000 E012.32.05.000 N048.22.28.000 E012.26.06.000
N048.22.28.000 E012.26.06.000 N048.23.22.144 E012.26.01.143
N048.23.22.144 E012.26.01.143 N048.24.16.139 E012.25.53.375
N048.24.16.139 E012.25.53.375 N048.25.09.921 E012.25.42.785
N048.25.09.921 E012.25.42.785 N048.26.03.424 E012.25.29.382
N048.26.03.424 E012.25.29.382 N048.26.56.583 E012.25.13.181
N048.26.56.583 E012.25.13.181 N048.27.49.334 E012.24.54.199
N048.27.49.334 E012.24.54.199 N048.28.41.613 E012.24.32.457
N048.28.41.613 E012.24.32.457 N048.29.33.356 E012.24.07.978
N048.29.33.356 E012.24.07.978 N048.30.24.499 E012.23.40.791
N048.30.24.499 E012.23.40.791 N048.31.15.000 E012.23.11.000
N048.31.15.000 E012.23.11.000 N048.25.39.000 E011.10.15.000
N048.25.39.000 E011.10.15.000 N048.26.29.866 E011.10.29.723
N048.26.29.866 E011.10.29.723 N048.27.20.353 E011.10.47.144
N048.27.20.353 E011.10.47.144 N048.28.10.410 E011.11.07.189
N048.28.10.410 E011.11.07.189 N048.28.59.974 E011.11.29.833
N048.28.59.974 E011.11.29.833 N048.29.49.000 E011.11.55.000
N048.19.15.000 E011.02.19.000 N048.19.52.000 E011.09.45.000
N048.19.52.000 E011.09.45.000 N048.19.02.841 E011.09.50.786
N048.19.02.841 E011.09.50.786 N048.18.13.821 E011.09.58.762
N048.18.13.821 E011.09.58.762 N048.17.25.003 E011.10.09.145
N048.17.25.003 E011.10.09.145 N048.16.36.438 E011.10.21.924
N048.16.36.438 E011.10.21.924 N048.15.48.180 E011.10.37.081
N048.15.48.180 E011.10.37.081 N048.15.00.280 E011.10.54.599
N048.15.00.280 E011.10.54.599 N048.14.12.789 E011.11.14.457
N048.14.12.789 E011.11.14.457 N048.13.25.760 E011.11.36.632
N048.13.25.760 E011.11.36.632 N048.12.39.241 E011.12.01.098
N048.12.39.241 E011.12.01.098 N048.11.53.284 E011.12.27.828
N048.11.53.284 E011.12.27.828 N048.11.08.000 E011.12.57.000
N048.11.08.000 E011.12.57.000 N048.16.42.000 E012.25.31.000
N048.16.42.000 E012.25.31.000 N048.15.51.590 E012.25.15.766
N048.15.51.590 E012.25.15.766 N048.15.01.508 E012.24.58.287
N048.15.01.508 E012.24.58.287 N048.14.11.839 E012.24.38.354
N048.14.11.839 E012.24.38.354 N048.13.22.634 E012.24.15.990
N048.13.22.634 E012.24.15.990 N048.12.34.000 E012.23.51.000
N048.12.34.000 E012.23.51.000 N048.08.17.000 E011.27.24.000
N048.08.17.000 E011.27.24.000 N048.07.59.013 E011.26.50.047
N048.07.59.013 E011.26.50.047 N048.07.41.880 E011.26.15.127
N048.07.41.880 E011.26.15.127 N048.07.25.645 E011.25.39.265
N048.07.25.645 E011.25.39.265 N048.07.10.333 E011.25.02.512
N048.07.10.333 E011.25.02.512 N048.06.55.965 E011.24.24.922
N048.06.55.965 E011.24.24.922 N048.06.42.561 E011.23.46.548
N048.06.42.561 E011.23.46.548 N048.06.30.141 E011.23.07.445
N048.06.30.141 E011.23.07.445 N048.06.18.723 E011.22.27.670
N048.06.18.723 E011.22.27.670 N048.06.08.323 E011.21.47.280
N048.06.08.323 E011.21.47.280 N048.05.58.956 E011.21.06.332
N048.05.58.956 E011.21.06.332 N048.05.50.635 E011.20.24.886
N048.05.50.635 E011.20.24.886 N048.05.43.373 E011.19.43.000
N048.05.43.373 E011.19.43.000 N048.05.37.179 E011.19.00.735
N048.05.37.179 E011.19.00.735 N048.05.32.063 E011.18.18.152
N048.05.32.063 E011.18.18.152 N048.05.28.031 E011.17.35.310
N048.05.28.031 E011.17.35.310 N048.05.25.090 E011.16.52.273
N048.05.25.090 E011.16.52.273 N048.05.23.244 E011.16.09.100
N048.05.23.244 E011.16.09.100 N048.05.22.495 E011.15.25.854
N048.05.22.495 E011.15.25.854 N048.05.22.845 E011.14.42.597
N048.05.22.845 E011.14.42.597 N048.05.24.293 E011.13.59.391
N048.05.24.293 E011.13.59.391 N048.05.26.837 E011.13.16.297
N048.05.26.837 E011.13.16.297 N048.05.30.473 E011.12.33.377
N048.05.30.473 E011.12.33.377 N048.05.35.196 E011.11.50.693
N048.05.35.196 E011.11.50.693 N048.05.41.000 E011.11.08.305
N048.05.41.000 E011.11.08.305 N048.05.47.876 E011.10.26.275
N048.05.47.876 E011.10.26.275 N048.05.55.813 E011.09.44.662
N048.05.55.813 E011.09.44.662 N048.06.04.802 E011.09.03.526
N048.06.04.802 E011.09.03.526 N048.06.14.829 E011.08.22.927
N048.06.14.829 E011.08.22.927 N048.06.25.879 E011.07.42.922
N048.06.25.879 E011.07.42.922 N048.06.37.937 E011.07.03.569
N048.06.37.937 E011.07.03.569 N048.06.50.985 E011.06.24.924
N048.06.50.985 E011.06.24.924 N048.07.05.006 E011.05.47.042
N048.07.05.006 E011.05.47.042 N048.07.20.000 E011.05.10.000
N048.07.20.000 E011.05.10.000 N048.08.41.000 E011.06.25.000
N048.08.41.000 E011.06.25.000 N048.09.35.693 E011.05.48.588
N048.09.35.693 E011.05.48.588 N048.10.31.144 E011.05.14.831
N048.10.31.144 E011.05.14.831 N048.11.27.315 E011.04.43.833
N048.11.27.315 E011.04.43.833 N048.12.24.142 E011.04.15.630
N048.12.24.142 E011.04.15.630 N048.13.21.563 E011.03.50.257
N048.13.21.563 E011.03.50.257 N048.14.19.516 E011.03.27.744
N048.14.19.516 E011.03.27.744 N048.15.17.936 E011.03.08.118
N048.15.17.936 E011.03.08.118 N048.16.16.759 E011.02.51.404
N048.16.16.759 E011.02.51.404 N048.17.15.920 E011.02.37.622
N048.17.15.920 E011.02.37.622 N048.18.15.355 E011.02.26.792
N048.18.15.355 E011.02.26.792 N048.19.15.000 E011.02.19.000
N048.29.54.000 E010.54.32.000 N048.30.24.083 E010.55.05.433
N048.30.24.083 E010.55.05.433 N048.30.53.215 E010.55.40.735
N048.30.53.215 E010.55.40.735 N048.31.21.509 E010.56.17.555
N048.31.21.509 E010.56.17.555 N048.31.48.930 E010.56.55.848
N048.31.48.930 E010.56.55.848 N048.32.15.444 E010.57.35.569
N048.32.15.444 E010.57.35.569 N048.32.41.018 E010.58.16.668
N048.32.41.018 E010.58.16.668 N048.33.05.621 E010.58.59.096
N048.33.05.621 E010.58.59.096 N048.33.29.222 E010.59.42.802
N048.33.29.222 E010.59.42.802 N048.33.51.793 E011.00.27.731
N048.33.51.793 E011.00.27.731 N048.34.13.306 E011.01.13.829
N048.34.13.306 E011.01.13.829 N048.34.33.734 E011.02.01.040
N048.34.33.734 E011.02.01.040 N048.34.53.052 E011.02.49.305
N048.34.53.052 E011.02.49.305 N048.35.11.237 E011.03.38.565
N048.35.11.237 E011.03.38.565 N048.35.28.264 E011.04.28.760
N048.35.28.264 E011.04.28.760 N048.35.44.115 E011.05.19.829
N048.35.44.115 E011.05.19.829 N048.35.58.769 E011.06.11.707
N048.35.58.769 E011.06.11.707 N048.36.12.208 E011.07.04.332
N048.36.12.208 E011.07.04.332 N048.36.24.415 E011.07.57.639
N048.36.24.415 E011.07.57.639 N048.36.35.376 E011.08.51.562
N048.36.35.376 E011.08.51.562 N048.36.45.077 E011.09.46.034
N048.36.45.077 E011.09.46.034 N048.36.53.505 E011.10.40.987
N048.36.53.505 E011.10.40.987 N048.37.00.651 E011.11.36.356
N048.37.00.651 E011.11.36.356 N048.37.06.505 E011.12.32.069
N048.37.06.505 E011.12.32.069 N048.37.11.061 E011.13.28.060
N048.37.11.061 E011.13.28.060 N048.37.14.313 E011.14.24.259
N048.37.14.313 E011.14.24.259 N048.37.16.256 E011.15.20.595
N048.37.16.256 E011.15.20.595 N048.37.16.888 E011.16.17.000
N048.37.16.888 E011.16.17.000 N048.37.16.209 E011.17.13.404
N048.37.16.209 E011.17.13.404 N048.37.14.220 E011.18.09.737
N048.37.14.220 E011.18.09.737 N048.37.10.922 E011.19.05.930
N048.37.10.922 E011.19.05.930 N048.37.06.320 E011.20.01.912
N048.37.06.320 E011.20.01.912 N048.37.00.419 E011.20.57.614
N048.37.00.419 E011.20.57.614 N048.36.53.228 E011.21.52.969
N048.36.53.228 E011.21.52.969 N048.36.45.000 E011.22.48.000
N048.36.45.000 E011.22.48.000 N048.39.39.000 E012.00.13.000
N048.39.39.000 E012.00.13.000 N048.40.04.200 E012.01.01.359
N048.40.04.200 E012.01.01.359 N048.40.28.309 E012.01.50.975
N048.40.28.309 E012.01.50.975 N048.40.51.275 E012.02.41.819
N048.40.51.275 E012.02.41.819 N048.41.13.071 E012.03.33.830
N048.41.13.071 E012.03.33.830 N048.41.33.671 E012.04.26.947
N048.41.33.671 E012.04.26.947 N048.41.53.052 E012.05.21.108
N048.41.53.052 E012.05.21.108 N048.42.11.189 E012.06.16.248
N048.42.11.189 E012.06.16.248 N048.42.28.061 E012.07.12.302
N048.42.28.061 E012.07.12.302 N048.42.43.649 E012.08.09.204
N048.42.43.649 E012.08.09.204 N048.42.57.933 E012.09.06.887
N048.42.57.933 E012.09.06.887 N048.43.10.897 E012.10.05.281
N048.43.10.897 E012.10.05.281 N048.43.22.526 E012.11.04.319
N048.43.22.526 E012.11.04.319 N048.43.32.805 E012.12.03.929
N048.43.32.805 E012.12.03.929 N048.43.41.722 E012.13.04.041
N048.43.41.722 E012.13.04.041 N048.43.49.267 E012.14.04.584
N048.43.49.267 E012.14.04.584 N048.43.55.431 E012.15.05.486
N048.43.55.431 E012.15.05.486 N048.44.00.206 E012.16.06.673
N048.44.00.206 E012.16.06.673 N048.44.03.587 E012.17.08.074
N048.44.03.587 E012.17.08.074 N048.44.05.569 E012.18.09.615
N048.44.05.569 E012.18.09.615 N048.44.06.151 E012.19.11.224
N048.44.06.151 E012.19.11.224 N048.44.05.332 E012.20.12.826
N048.44.05.332 E012.20.12.826 N048.44.03.112 E012.21.14.348
N048.44.03.112 E012.21.14.348 N048.43.59.494 E012.22.15.718
N048.43.59.494 E012.22.15.718 N048.43.54.483 E012.23.16.862
N048.43.54.483 E012.23.16.862 N048.43.48.085 E012.24.17.708
N048.43.48.085 E012.24.17.708 N048.43.40.306 E012.25.18.183
N048.43.40.306 E012.25.18.183 N048.43.31.157 E012.26.18.215
N048.43.31.157 E012.26.18.215 N048.43.20.649 E012.27.17.733
N048.43.20.649 E012.27.17.733 N048.43.08.793 E012.28.16.667
N048.43.08.793 E012.28.16.667 N048.42.55.604 E012.29.14.946
N048.42.55.604 E012.29.14.946 N048.42.41.097 E012.30.12.501
N048.42.41.097 E012.30.12.501 N048.42.25.290 E012.31.09.264
N048.42.25.290 E012.31.09.264 N048.42.08.202 E012.32.05.167
N048.42.08.202 E012.32.05.167 N048.41.49.853 E012.33.00.146
N048.41.49.853 E012.33.00.146 N048.41.30.264 E012.33.54.134
N048.41.30.264 E012.33.54.134 N048.41.09.459 E012.34.47.068
N048.41.09.459 E012.34.47.068 N048.40.47.462 E012.35.38.885
N048.40.47.462 E012.35.38.885 N048.40.24.301 E012.36.29.525
N048.40.24.301 E012.36.29.525 N048.40.00.001 E012.37.18.928
N048.40.00.001 E012.37.18.928 N048.39.34.593 E012.38.07.035
N048.39.34.593 E012.38.07.035 N048.39.08.105 E012.38.53.791
N048.39.08.105 E012.38.53.791 N048.38.40.570 E012.39.39.140
N048.38.40.570 E012.39.39.140 N048.38.12.000 E012.40.23.000
N048.38.12.000 E012.40.23.000 N048.34.18.000 E012.35.11.000
N048.34.18.000 E012.35.11.000 N048.34.39.638 E012.34.38.932
N048.34.39.638 E012.34.38.932 N048.35.00.644 E012.34.05.928
N048.35.00.644 E012.34.05.928 N048.35.20.881 E012.33.31.846
N048.35.20.881 E012.33.31.846 N048.35.40.326 E012.32.56.727
N048.35.40.326 E012.32.56.727 N048.35.58.954 E012.32.20.612
N048.35.58.954 E012.32.20.612 N048.36.16.743 E012.31.43.546
N048.36.16.743 E012.31.43.546 N048.36.33.672 E012.31.05.571
N048.36.33.672 E012.31.05.571 N048.36.49.721 E012.30.26.733
N048.36.49.721 E012.30.26.733 N048.37.04.870 E012.29.47.078
N048.37.04.870 E012.29.47.078 N048.37.19.101 E012.29.06.654
N048.37.19.101 E012.29.06.654 N048.37.32.398 E012.28.25.510
N048.37.32.398 E012.28.25.510 N048.37.44.743 E012.27.43.693
N048.37.44.743 E012.27.43.693 N048.37.56.123 E012.27.01.255
N048.37.56.123 E012.27.01.255 N048.38.06.524 E012.26.18.247
N048.38.06.524 E012.26.18.247 N048.38.15.933 E012.25.34.719
N048.38.15.933 E012.25.34.719 N048.38.24.339 E012.24.50.724
N048.38.24.339 E012.24.50.724 N048.38.31.732 E012.24.06.315
N048.38.31.732 E012.24.06.315 N048.38.38.102 E012.23.21.546
N048.38.38.102 E012.23.21.546 N048.38.43.443 E012.22.36.469
N048.38.43.443 E012.22.36.469 N048.38.47.748 E012.21.51.139
N048.38.47.748 E012.21.51.139 N048.38.51.012 E012.21.05.611
N048.38.51.012 E012.21.05.611 N048.38.53.230 E012.20.19.939
N048.38.53.230 E012.20.19.939 N048.38.54.400 E012.19.34.178
N048.38.54.400 E012.19.34.178 N048.38.54.521 E012.18.48.383
N048.38.54.521 E012.18.48.383 N048.38.53.593 E012.18.02.609
N048.38.53.593 E012.18.02.609 N048.38.51.616 E012.17.16.912
N048.38.51.616 E012.17.16.912 N048.38.48.593 E012.16.31.346
N048.38.48.593 E012.16.31.346 N048.38.44.528 E012.15.45.965
N048.38.44.528 E012.15.45.965 N048.38.39.426 E012.15.00.825
N048.38.39.426 E012.15.00.825 N048.38.33.292 E012.14.15.980
N048.38.33.292 E012.14.15.980 N048.38.26.134 E012.13.31.483
N048.38.26.134 E012.13.31.483 N048.38.17.961 E012.12.47.388
N048.38.17.961 E012.12.47.388 N048.38.08.783 E012.12.03.748
N048.38.08.783 E012.12.03.748 N048.37.58.610 E012.11.20.615
N048.37.58.610 E012.11.20.615 N048.37.47.454 E012.10.38.041
N048.37.47.454 E012.10.38.041 N048.37.35.330 E012.09.56.077
N048.37.35.330 E012.09.56.077 N048.37.22.251 E012.09.14.773
N048.37.22.251 E012.09.14.773 N048.37.08.234 E012.08.34.179
N048.37.08.234 E012.08.34.179 N048.36.53.295 E012.07.54.342
N048.36.53.295 E012.07.54.342 N048.36.37.452 E012.07.15.312
N048.36.37.452 E012.07.15.312 N048.36.20.724 E012.06.37.134
N048.36.20.724 E012.06.37.134 N048.36.03.000 E012.06.00.000
N048.36.03.000 E012.06.00.000 N048.36.03.000 E012.06.00.000
N048.36.03.000 E012.06.00.000 N048.32.00.000 E011.13.57.000
N048.32.00.000 E011.13.57.000 N048.31.55.830 E011.13.14.329
N048.31.55.830 E011.13.14.329 N048.31.50.740 E011.12.31.891
N048.31.50.740 E011.12.31.891 N048.31.44.589 E011.11.49.773
N048.31.44.589 E011.11.49.773 N048.31.37.386 E011.11.08.037
N048.31.37.386 E011.11.08.037 N048.31.29.142 E011.10.26.742
N048.31.29.142 E011.10.26.742 N048.31.19.868 E011.09.45.947
N048.31.19.868 E011.09.45.947 N048.31.09.577 E011.09.05.710
N048.31.09.577 E011.09.05.710 N048.30.58.285 E011.08.26.090
N048.30.58.285 E011.08.26.090 N048.30.46.007 E011.07.47.141
N048.30.46.007 E011.07.47.141 N048.30.32.761 E011.07.08.921
N048.30.32.761 E011.07.08.921 N048.30.18.566 E011.06.31.482
N048.30.18.566 E011.06.31.482 N048.30.03.442 E011.05.54.880
N048.30.03.442 E011.05.54.880 N048.29.47.411 E011.05.19.166
N048.29.47.411 E011.05.19.166 N048.29.30.496 E011.04.44.391
N048.29.30.496 E011.04.44.391 N048.29.12.721 E011.04.10.603
N048.29.12.721 E011.04.10.603 N048.28.54.000 E011.03.38.000
N048.28.54.000 E011.03.38.000 N048.27.53.855 E011.03.16.364
N048.27.53.855 E011.03.16.364 N048.26.53.276 E011.02.57.693
N048.26.53.276 E011.02.57.693 N048.25.52.305 E011.02.42.175
N048.25.52.305 E011.02.42.175 N048.24.51.000 E011.02.30.000
N048.24.51.000 E011.02.30.000 N048.29.54.000 E010.54.32.000
N048.05.39.000 E011.03.34.000 N048.05.23.114 E011.04.13.037
N048.05.23.114 E011.04.13.037 N048.05.08.167 E011.04.52.890
N048.05.08.167 E011.04.52.890 N048.04.54.153 E011.05.33.487
N048.04.54.153 E011.05.33.487 N048.04.41.087 E011.06.14.780
N048.04.41.087 E011.06.14.780 N048.04.28.986 E011.06.56.720
N048.04.28.986 E011.06.56.720 N048.04.17.863 E011.07.39.256
N048.04.17.863 E011.07.39.256 N048.04.07.733 E011.08.22.337
N048.04.07.733 E011.08.22.337 N048.03.58.606 E011.09.05.913
N048.03.58.606 E011.09.05.913 N048.03.50.494 E011.09.49.932
N048.03.50.494 E011.09.49.932 N048.03.43.407 E011.10.34.341
N048.03.43.407 E011.10.34.341 N048.03.37.353 E011.11.19.087
N048.03.37.353 E011.11.19.087 N048.03.32.338 E011.12.04.117
N048.03.32.338 E011.12.04.117 N048.03.28.370 E011.12.49.377
N048.03.28.370 E011.12.49.377 N048.03.25.453 E011.13.34.814
N048.03.25.453 E011.13.34.814 N048.03.23.589 E011.14.20.374
N048.03.23.589 E011.14.20.374 N048.03.22.783 E011.15.06.002
N048.03.22.783 E011.15.06.002 N048.03.23.034 E011.15.51.645
N048.03.23.034 E011.15.51.645 N048.03.24.342 E011.16.37.247
N048.03.24.342 E011.16.37.247 N048.03.26.705 E011.17.22.756
N048.03.26.705 E011.17.22.756 N048.03.30.121 E011.18.08.116
N048.03.30.121 E011.18.08.116 N048.03.34.586 E011.18.53.273
N048.03.34.586 E011.18.53.273 N048.03.40.095 E011.19.38.175
N048.03.40.095 E011.19.38.175 N048.03.46.640 E011.20.22.768
N048.03.46.640 E011.20.22.768 N048.03.54.215 E011.21.06.998
N048.03.54.215 E011.21.06.998 N048.04.02.809 E011.21.50.813
N048.04.02.809 E011.21.50.813 N048.04.12.413 E011.22.34.161
N048.04.12.413 E011.22.34.161 N048.04.23.016 E011.23.16.990
N048.04.23.016 E011.23.16.990 N048.04.34.605 E011.23.59.250
N048.04.34.605 E011.23.59.250 N048.04.47.165 E011.24.40.889
N048.04.47.165 E011.24.40.889 N048.05.00.683 E011.25.21.858
N048.05.00.683 E011.25.21.858 N048.05.15.141 E011.26.02.108
N048.05.15.141 E011.26.02.108 N048.05.30.524 E011.26.41.591
N048.05.30.524 E011.26.41.591 N048.05.46.812 E011.27.20.260
N048.05.46.812 E011.27.20.260 N048.06.03.985 E011.27.58.069
N048.06.03.985 E011.27.58.069 N048.06.22.000 E011.28.35.000
N048.06.22.000 E011.28.35.000 N048.10.16.000 E012.19.45.000
N048.10.16.000 E012.19.45.000 N048.10.18.970 E012.20.27.590
N048.10.18.970 E012.20.27.590 N048.10.23.053 E012.21.09.976
N048.10.23.053 E012.21.09.976 N048.10.28.195 E012.21.52.105
N048.10.28.195 E012.21.52.105 N048.10.34.391 E012.22.33.917
N048.10.34.391 E012.22.33.917 N048.10.41.630 E012.23.15.354
N048.10.41.630 E012.23.15.354 N048.10.49.903 E012.23.56.357
N048.10.49.903 E012.23.56.357 N048.10.59.198 E012.24.36.871
N048.10.59.198 E012.24.36.871 N048.11.09.503 E012.25.16.836
N048.11.09.503 E012.25.16.836 N048.11.20.802 E012.25.56.198
N048.11.20.802 E012.25.56.198 N048.11.33.081 E012.26.34.901
N048.11.33.081 E012.26.34.901 N048.11.46.321 E012.27.12.892
N048.11.46.321 E012.27.12.892 N048.12.00.504 E012.27.50.115
N048.12.00.504 E012.27.50.115 N048.12.15.611 E012.28.26.520
N048.12.15.611 E012.28.26.520 N048.12.31.619 E012.29.02.054
N048.12.31.619 E012.29.02.054 N048.12.48.508 E012.29.36.668
N048.12.48.508 E012.29.36.668 N048.13.06.252 E012.30.10.313
N048.13.06.252 E012.30.10.313 N048.13.24.828 E012.30.42.942
N048.13.24.828 E012.30.42.942 N048.13.44.208 E012.31.14.508
N048.13.44.208 E012.31.14.508 N048.14.04.366 E012.31.44.966
N048.14.04.366 E012.31.44.966 N048.14.25.274 E012.32.14.274
N048.14.25.274 E012.32.14.274 N048.14.46.902 E012.32.42.390
N048.14.46.902 E012.32.42.390 N048.15.09.219 E012.33.09.274
N048.15.09.219 E012.33.09.274 N048.15.32.195 E012.33.34.887
N048.15.32.195 E012.33.34.887 N048.15.55.797 E012.33.59.194
N048.15.55.797 E012.33.59.194 N048.16.19.991 E012.34.22.159
N048.16.19.991 E012.34.22.159 N048.16.44.745 E012.34.43.750
N048.16.44.745 E012.34.43.750 N048.17.10.000 E012.35.04.000
N048.17.10.000 E012.35.04.000 N048.14.09.000 E012.40.49.000
N048.14.09.000 E012.40.49.000 N048.13.37.000 E012.41.01.000
N048.13.37.000 E012.41.01.000 N048.13.05.550 E012.40.30.853
N048.13.05.550 E012.40.30.853 N048.12.34.732 E012.39.59.292
N048.12.34.732 E012.39.59.292 N048.12.04.664 E012.39.26.157
N048.12.04.664 E012.39.26.157 N048.11.35.382 E012.38.51.487
N048.11.35.382 E012.38.51.487 N048.11.06.922 E012.38.15.325
N048.11.06.922 E012.38.15.325 N048.10.39.316 E012.37.37.716
N048.10.39.316 E012.37.37.716 N048.10.12.599 E012.36.58.704
N048.10.12.599 E012.36.58.704 N048.09.46.802 E012.36.18.337
N048.09.46.802 E012.36.18.337 N048.09.21.956 E012.35.36.664
N048.09.21.956 E012.35.36.664 N048.08.58.091 E012.34.53.734
N048.08.58.091 E012.34.53.734 N048.08.35.236 E012.34.09.601
N048.08.35.236 E012.34.09.601 N048.08.13.417 E012.33.24.317
N048.08.13.417 E012.33.24.317 N048.07.52.660 E012.32.37.936
N048.07.52.660 E012.32.37.936 N048.07.32.992 E012.31.50.515
N048.07.32.992 E012.31.50.515 N048.07.14.434 E012.31.02.110
N048.07.14.434 E012.31.02.110 N048.06.57.009 E012.30.12.779
N048.06.57.009 E012.30.12.779 N048.06.40.739 E012.29.22.581
N048.06.40.739 E012.29.22.581 N048.06.25.642 E012.28.31.577
N048.06.25.642 E012.28.31.577 N048.06.11.736 E012.27.39.827
N048.06.11.736 E012.27.39.827 N048.05.59.038 E012.26.47.393
N048.05.59.038 E012.26.47.393 N048.05.47.562 E012.25.54.338
N048.05.47.562 E012.25.54.338 N048.05.37.324 E012.25.00.725
N048.05.37.324 E012.25.00.725 N048.05.28.335 E012.24.06.618
N048.05.28.335 E012.24.06.618 N048.05.20.605 E012.23.12.082
N048.05.20.605 E012.23.12.082 N048.05.14.144 E012.22.17.181
N048.05.14.144 E012.22.17.181 N048.05.08.959 E012.21.21.982
N048.05.08.959 E012.21.21.982 N048.05.05.058 E012.20.26.549
N048.05.05.058 E012.20.26.549 N048.05.02.443 E012.19.30.948
N048.05.02.443 E012.19.30.948 N048.05.01.119 E012.18.35.247
N048.05.01.119 E012.18.35.247 N048.05.01.087 E012.17.39.510
N048.05.01.087 E012.17.39.510 N048.05.02.347 E012.16.43.806
N048.05.02.347 E012.16.43.806 N048.05.04.898 E012.15.48.199
N048.05.04.898 E012.15.48.199 N048.05.08.736 E012.14.52.756
N048.05.08.736 E012.14.52.756 N048.05.13.857 E012.13.57.543
N048.05.13.857 E012.13.57.543 N048.05.20.255 E012.13.02.626
N048.05.20.255 E012.13.02.626 N048.05.27.923 E012.12.08.070
N048.05.27.923 E012.12.08.070 N048.05.37.000 E012.11.14.000
N048.05.37.000 E012.11.14.000 N048.02.48.000 E011.34.21.000
N048.02.48.000 E011.34.21.000 N048.02.22.634 E011.33.33.559
N048.02.22.634 E011.33.33.559 N048.01.58.253 E011.32.44.993
N048.01.58.253 E011.32.44.993 N048.01.34.992 E011.31.55.228
N048.01.34.992 E011.31.55.228 N048.01.12.876 E011.31.04.322
N048.01.12.876 E011.31.04.322 N048.00.51.931 E011.30.12.333
N048.00.51.931 E011.30.12.333 N048.00.32.181 E011.29.19.322
N048.00.32.181 E011.29.19.322 N048.00.13.648 E011.28.25.348
N048.00.13.648 E011.28.25.348 N047.59.56.354 E011.27.30.474
N047.59.56.354 E011.27.30.474 N047.59.40.318 E011.26.34.764
N047.59.40.318 E011.26.34.764 N047.59.25.559 E011.25.38.280
N047.59.25.559 E011.25.38.280 N047.59.12.093 E011.24.41.088
N047.59.12.093 E011.24.41.088 N047.58.59.936 E011.23.43.252
N047.58.59.936 E011.23.43.252 N047.58.49.102 E011.22.44.840
N047.58.49.102 E011.22.44.840 N047.58.39.603 E011.21.45.918
N047.58.39.603 E011.21.45.918 N047.58.31.451 E011.20.46.553
N047.58.31.451 E011.20.46.553 N047.58.24.653 E011.19.46.814
N047.58.24.653 E011.19.46.814 N047.58.19.219 E011.18.46.767
N047.58.19.219 E011.18.46.767 N047.58.15.153 E011.17.46.482
N047.58.15.153 E011.17.46.482 N047.58.12.462 E011.16.46.028
N047.58.12.462 E011.16.46.028 N047.58.11.148 E011.15.45.474
N047.58.11.148 E011.15.45.474 N047.58.11.212 E011.14.44.888
N047.58.11.212 E011.14.44.888 N047.58.12.654 E011.13.44.340
N047.58.12.654 E011.13.44.340 N047.58.15.474 E011.12.43.898
N047.58.15.474 E011.12.43.898 N047.58.19.667 E011.11.43.633
N047.58.19.667 E011.11.43.633 N047.58.25.228 E011.10.43.612
N047.58.25.228 E011.10.43.612 N047.58.32.152 E011.09.43.904
N047.58.32.152 E011.09.43.904 N047.58.40.431 E011.08.44.578
N047.58.40.431 E011.08.44.578 N047.58.50.055 E011.07.45.700
N047.58.50.055 E011.07.45.700 N047.59.01.012 E011.06.47.339
N047.59.01.012 E011.06.47.339 N047.59.13.292 E011.05.49.561
N047.59.13.292 E011.05.49.561 N047.59.26.878 E011.04.52.432
N047.59.26.878 E011.04.52.432 N047.59.41.757 E011.03.56.017
N047.59.41.757 E011.03.56.017 N047.59.57.911 E011.03.00.382
N047.59.57.911 E011.03.00.382 N048.00.15.321 E011.02.05.589
N048.00.15.321 E011.02.05.589 N048.00.33.968 E011.01.11.703
N048.00.33.968 E011.01.11.703 N048.00.53.831 E011.00.18.784
N048.00.53.831 E011.00.18.784 N048.01.15.000 E010.59.27.000
N048.01.15.000 E010.59.27.000 N048.05.39.000 E011.03.34.000
N048.32.27.000 E010.50.15.000 N048.33.04.267 E010.50.53.023
N048.33.04.267 E010.50.53.023 N048.33.38.805 E010.51.36.404
N048.33.38.805 E010.51.36.404 N048.34.12.324 E010.52.21.570
N048.34.12.324 E010.52.21.570 N048.34.44.784 E010.53.08.467
N048.34.44.784 E010.53.08.467 N048.35.16.146 E010.53.57.040
N048.35.16.146 E010.53.57.040 N048.35.46.372 E010.54.47.231
N048.35.46.372 E010.54.47.231 N048.36.15.426 E010.55.38.980
N048.36.15.426 E010.55.38.980 N048.36.43.271 E010.56.32.225
N048.36.43.271 E010.56.32.225 N048.37.09.875 E010.57.26.902
N048.37.09.875 E010.57.26.902 N048.37.35.206 E010.58.22.947
N048.37.35.206 E010.58.22.947 N048.37.59.232 E010.59.20.290
N048.37.59.232 E010.59.20.290 N048.38.21.925 E011.00.18.865
N048.38.21.925 E011.00.18.865 N048.38.43.257 E011.01.18.600
N048.38.43.257 E011.01.18.600 N048.39.03.203 E011.02.19.422
N048.39.03.203 E011.02.19.422 N048.39.21.737 E011.03.21.260
N048.39.21.737 E011.03.21.260 N048.39.38.838 E011.04.24.037
N048.39.38.838 E011.04.24.037 N048.39.54.485 E011.05.27.678
N048.39.54.485 E011.05.27.678 N048.40.08.659 E011.06.32.107
N048.40.08.659 E011.06.32.107 N048.40.21.342 E011.07.37.244
N048.40.21.342 E011.07.37.244 N048.40.32.520 E011.08.43.011
N048.40.32.520 E011.08.43.011 N048.40.42.178 E011.09.49.329
N048.40.42.178 E011.09.49.329 N048.40.50.305 E011.10.56.116
N048.40.50.305 E011.10.56.116 N048.40.56.891 E011.12.03.292
N048.40.56.891 E011.12.03.292 N048.41.01.929 E011.13.10.775
N048.41.01.929 E011.13.10.775 N048.41.05.411 E011.14.18.483
N048.41.05.411 E011.14.18.483 N048.41.07.334 E011.15.26.334
N048.41.07.334 E011.15.26.334 N048.41.07.696 E011.16.34.246
N048.41.07.696 E011.16.34.246 N048.41.06.495 E011.17.42.135
N048.41.06.495 E011.17.42.135 N048.41.03.734 E011.18.49.919
N048.41.03.734 E011.18.49.919 N048.40.59.415 E011.19.57.517
N048.40.59.415 E011.19.57.517 N048.40.53.545 E011.21.04.845
N048.40.53.545 E011.21.04.845 N048.40.46.129 E011.22.11.822
N048.40.46.129 E011.22.11.822 N048.40.37.178 E011.23.18.367
N048.40.37.178 E011.23.18.367 N048.40.26.702 E011.24.24.399
N048.40.26.702 E011.24.24.399 N048.40.14.713 E011.25.29.838
N048.40.14.713 E011.25.29.838 N048.40.04.000 E011.26.36.000
N048.40.04.000 E011.26.36.000 N048.42.20.000 E011.55.54.000
N048.42.20.000 E011.55.54.000 N048.42.51.134 E011.56.51.328
N048.42.51.134 E011.56.51.328 N048.43.21.036 E011.57.50.138
N048.43.21.036 E011.57.50.138 N048.43.49.574 E011.58.50.488
N048.43.49.574 E011.58.50.488 N048.44.16.712 E011.59.52.303
N048.44.16.712 E011.59.52.303 N048.44.42.419 E012.00.55.512
N048.44.42.419 E012.00.55.512 N048.45.06.662 E012.02.00.037
N048.45.06.662 E012.02.00.037 N048.45.29.412 E012.03.05.802
N048.45.29.412 E012.03.05.802 N048.45.50.643 E012.04.12.728
N048.45.50.643 E012.04.12.728 N048.46.10.328 E012.05.20.733
N048.46.10.328 E012.05.20.733 N048.46.28.443 E012.06.29.737
N048.46.28.443 E012.06.29.737 N048.46.44.968 E012.07.39.655
N048.46.44.968 E012.07.39.655 N048.46.59.881 E012.08.50.404
N048.46.59.881 E012.08.50.404 N048.47.13.165 E012.10.01.898
N048.47.13.165 E012.10.01.898 N048.47.24.803 E012.11.14.051
N048.47.24.803 E012.11.14.051 N048.47.34.782 E012.12.26.775
N048.47.34.782 E012.12.26.775 N048.47.43.089 E012.13.39.982
N048.47.43.089 E012.13.39.982 N048.47.49.715 E012.14.53.585
N048.47.49.715 E012.14.53.585 N048.47.54.651 E012.16.07.493
N048.47.54.651 E012.16.07.493 N048.47.57.891 E012.17.21.618
N048.47.57.891 E012.17.21.618 N048.47.59.432 E012.18.35.869
N048.47.59.432 E012.18.35.869 N048.47.59.271 E012.19.50.157
N048.47.59.271 E012.19.50.157 N048.47.57.409 E012.21.04.391
N048.47.57.409 E012.21.04.391 N048.47.53.849 E012.22.18.482
N048.47.53.849 E012.22.18.482 N048.47.48.593 E012.23.32.339
N048.47.48.593 E012.23.32.339 N048.47.41.649 E012.24.45.874
N048.47.41.649 E012.24.45.874 N048.47.33.025 E012.25.58.997
N048.47.33.025 E012.25.58.997 N048.47.22.732 E012.27.11.620
N048.47.22.732 E012.27.11.620 N048.47.10.782 E012.28.23.655
N048.47.10.782 E012.28.23.655 N048.46.57.189 E012.29.35.015
N048.46.57.189 E012.29.35.015 N048.46.41.970 E012.30.45.614
N048.46.41.970 E012.30.45.614 N048.46.25.144 E012.31.55.366
N048.46.25.144 E012.31.55.366 N048.46.06.730 E012.33.04.187
N048.46.06.730 E012.33.04.187 N048.45.46.751 E012.34.11.995
N048.45.46.751 E012.34.11.995 N048.45.25.232 E012.35.18.707
N048.45.25.232 E012.35.18.707 N048.45.02.197 E012.36.24.244
N048.45.02.197 E012.36.24.244 N048.44.37.676 E012.37.28.527
N048.44.37.676 E012.37.28.527 N048.44.11.697 E012.38.31.478
N048.44.11.697 E012.38.31.478 N048.43.44.292 E012.39.33.022
N048.43.44.292 E012.39.33.022 N048.43.15.494 E012.40.33.087
N048.43.15.494 E012.40.33.087 N048.42.45.337 E012.41.31.599
N048.42.45.337 E012.41.31.599 N048.42.13.859 E012.42.28.489
N048.42.13.859 E012.42.28.489 N048.41.41.097 E012.43.23.690
N048.41.41.097 E012.43.23.690 N048.41.07.000 E012.44.17.000
N048.41.07.000 E012.44.17.000 N048.38.12.000 E012.40.23.000
N048.38.12.000 E012.40.23.000 N048.38.40.570 E012.39.39.140
N048.38.40.570 E012.39.39.140 N048.39.08.105 E012.38.53.791
N048.39.08.105 E012.38.53.791 N048.39.34.593 E012.38.07.035
N048.39.34.593 E012.38.07.035 N048.40.00.001 E012.37.18.928
N048.40.00.001 E012.37.18.928 N048.40.24.301 E012.36.29.525
N048.40.24.301 E012.36.29.525 N048.40.47.462 E012.35.38.885
N048.40.47.462 E012.35.38.885 N048.41.09.459 E012.34.47.068
N048.41.09.459 E012.34.47.068 N048.41.30.264 E012.33.54.134
N048.41.30.264 E012.33.54.134 N048.41.49.853 E012.33.00.146
N048.41.49.853 E012.33.00.146 N048.42.08.202 E012.32.05.167
N048.42.08.202 E012.32.05.167 N048.42.25.290 E012.31.09.264
N048.42.25.290 E012.31.09.264 N048.42.41.097 E012.30.12.501
N048.42.41.097 E012.30.12.501 N048.42.55.604 E012.29.14.946
N048.42.55.604 E012.29.14.946 N048.43.08.793 E012.28.16.667
N048.43.08.793 E012.28.16.667 N048.43.20.649 E012.27.17.733
N048.43.20.649 E012.27.17.733 N048.43.31.157 E012.26.18.215
N048.43.31.157 E012.26.18.215 N048.43.40.306 E012.25.18.183
N048.43.40.306 E012.25.18.183 N048.43.48.085 E012.24.17.708
N048.43.48.085 E012.24.17.708 N048.43.54.483 E012.23.16.862
N048.43.54.483 E012.23.16.862 N048.43.59.494 E012.22.15.718
N048.43.59.494 E012.22.15.718 N048.44.03.112 E012.21.14.348
N048.44.03.112 E012.21.14.348 N048.44.05.332 E012.20.12.826
N048.44.05.332 E012.20.12.826 N048.44.06.151 E012.19.11.224
N048.44.06.151 E012.19.11.224 N048.44.05.569 E012.18.09.615
N048.44.05.569 E012.18.09.615 N048.44.03.587 E012.17.08.074
N048.44.03.587 E012.17.08.074 N048.44.00.206 E012.16.06.673
N048.44.00.206 E012.16.06.673 N048.43.55.431 E012.15.05.486
N048.43.55.431 E012.15.05.486 N048.43.49.267 E012.14.04.584
N048.43.49.267 E012.14.04.584 N048.43.41.722 E012.13.04.041
N048.43.41.722 E012.13.04.041 N048.43.32.805 E012.12.03.929
N048.43.32.805 E012.12.03.929 N048.43.22.526 E012.11.04.319
N048.43.22.526 E012.11.04.319 N048.43.10.897 E012.10.05.281
N048.43.10.897 E012.10.05.281 N048.42.57.933 E012.09.06.887
N048.42.57.933 E012.09.06.887 N048.42.43.649 E012.08.09.204
N048.42.43.649 E012.08.09.204 N048.42.28.061 E012.07.12.302
N048.42.28.061 E012.07.12.302 N048.42.11.189 E012.06.16.248
N048.42.11.189 E012.06.16.248 N048.41.53.052 E012.05.21.108
N048.41.53.052 E012.05.21.108 N048.41.33.671 E012.04.26.947
N048.41.33.671 E012.04.26.947 N048.41.13.071 E012.03.33.830
N048.41.13.071 E012.03.33.830 N048.40.51.275 E012.02.41.819
N048.40.51.275 E012.02.41.819 N048.40.28.309 E012.01.50.975
N048.40.28.309 E012.01.50.975 N048.40.04.200 E012.01.01.359
N048.40.04.200 E012.01.01.359 N048.39.39.000 E012.00.13.000
N048.39.39.000 E012.00.13.000 N048.36.45.000 E011.22.48.000
N048.36.45.000 E011.22.48.000 N048.36.53.228 E011.21.52.969
N048.36.53.228 E011.21.52.969 N048.37.00.419 E011.20.57.614
N048.37.00.419 E011.20.57.614 N048.37.06.320 E011.20.01.912
N048.37.06.320 E011.20.01.912 N048.37.10.922 E011.19.05.930
N048.37.10.922 E011.19.05.930 N048.37.14.220 E011.18.09.737
N048.37.14.220 E011.18.09.737 N048.37.16.209 E011.17.13.404
N048.37.16.209 E011.17.13.404 N048.37.16.888 E011.16.17.000
N048.37.16.888 E011.16.17.000 N048.37.16.256 E011.15.20.595
N048.37.16.256 E011.15.20.595 N048.37.14.313 E011.14.24.259
N048.37.14.313 E011.14.24.259 N048.37.11.061 E011.13.28.060
N048.37.11.061 E011.13.28.060 N048.37.06.505 E011.12.32.069
N048.37.06.505 E011.12.32.069 N048.37.00.651 E011.11.36.356
N048.37.00.651 E011.11.36.356 N048.36.53.505 E011.10.40.987
N048.36.53.505 E011.10.40.987 N048.36.45.077 E011.09.46.034
N048.36.45.077 E011.09.46.034 N048.36.35.376 E011.08.51.562
N048.36.35.376 E011.08.51.562 N048.36.24.415 E011.07.57.639
N048.36.24.415 E011.07.57.639 N048.36.12.208 E011.07.04.332
N048.36.12.208 E011.07.04.332 N048.35.58.769 E011.06.11.707
N048.35.58.769 E011.06.11.707 N048.35.44.115 E011.05.19.829
N048.35.44.115 E011.05.19.829 N048.35.28.264 E011.04.28.760
N048.35.28.264 E011.04.28.760 N048.35.11.237 E011.03.38.565
N048.35.11.237 E011.03.38.565 N048.34.53.052 E011.02.49.305
N048.34.53.052 E011.02.49.305 N048.34.33.734 E011.02.01.040
N048.34.33.734 E011.02.01.040 N048.34.13.306 E011.01.13.829
N048.34.13.306 E011.01.13.829 N048.33.51.793 E011.00.27.731
N048.33.51.793 E011.00.27.731 N048.33.29.222 E010.59.42.802
N048.33.29.222 E010.59.42.802 N048.33.05.621 E010.58.59.096
N048.33.05.621 E010.58.59.096 N048.32.41.018 E010.58.16.668
N048.32.41.018 E010.58.16.668 N048.32.15.444 E010.57.35.569
N048.32.15.444 E010.57.35.569 N048.31.48.930 E010.56.55.848
N048.31.48.930 E010.56.55.848 N048.31.21.509 E010.56.17.555
N048.31.21.509 E010.56.17.555 N048.30.53.215 E010.55.40.735
N048.30.53.215 E010.55.40.735 N048.30.24.083 E010.55.05.433
N048.30.24.083 E010.55.05.433 N048.29.54.000 E010.54.32.000
N048.29.54.000 E010.54.32.000 N048.32.37.000 E010.50.15.000
N048.01.15.000 E010.59.27.000 N048.00.53.831 E011.00.18.784
N048.00.53.831 E011.00.18.784 N048.00.33.968 E011.01.11.703
N048.00.33.968 E011.01.11.703 N048.00.15.321 E011.02.05.589
N048.00.15.321 E011.02.05.589 N047.59.57.911 E011.03.00.382
N047.59.57.911 E011.03.00.382 N047.59.41.757 E011.03.56.017
N047.59.41.757 E011.03.56.017 N047.59.26.878 E011.04.52.432
N047.59.26.878 E011.04.52.432 N047.59.13.292 E011.05.49.561
N047.59.13.292 E011.05.49.561 N047.59.01.012 E011.06.47.339
N047.59.01.012 E011.06.47.339 N047.58.50.055 E011.07.45.700
N047.58.50.055 E011.07.45.700 N047.58.40.431 E011.08.44.578
N047.58.40.431 E011.08.44.578 N047.58.32.152 E011.09.43.904
N047.58.32.152 E011.09.43.904 N047.58.25.228 E011.10.43.612
N047.58.25.228 E011.10.43.612 N047.58.19.667 E011.11.43.633
N047.58.19.667 E011.11.43.633 N047.58.15.474 E011.12.43.898
N047.58.15.474 E011.12.43.898 N047.58.12.654 E011.13.44.340
N047.58.12.654 E011.13.44.340 N047.58.11.212 E011.14.44.888
N047.58.11.212 E011.14.44.888 N047.58.11.148 E011.15.45.474
N047.58.11.148 E011.15.45.474 N047.58.12.462 E011.16.46.028
N047.58.12.462 E011.16.46.028 N047.58.15.153 E011.17.46.482
N047.58.15.153 E011.17.46.482 N047.58.19.219 E011.18.46.767
N047.58.19.219 E011.18.46.767 N047.58.24.653 E011.19.46.814
N047.58.24.653 E011.19.46.814 N047.58.31.451 E011.20.46.553
N047.58.31.451 E011.20.46.553 N047.58.39.603 E011.21.45.918
N047.58.39.603 E011.21.45.918 N047.58.49.102 E011.22.44.840
N047.58.49.102 E011.22.44.840 N047.58.59.936 E011.23.43.252
N047.58.59.936 E011.23.43.252 N047.59.12.093 E011.24.41.088
N047.59.12.093 E011.24.41.088 N047.59.25.559 E011.25.38.280
N047.59.25.559 E011.25.38.280 N047.59.40.318 E011.26.34.764
N047.59.40.318 E011.26.34.764 N047.59.56.354 E011.27.30.474
N047.59.56.354 E011.27.30.474 N048.00.13.648 E011.28.25.348
N048.00.13.648 E011.28.25.348 N048.00.32.181 E011.29.19.322
N048.00.32.181 E011.29.19.322 N048.00.51.931 E011.30.12.333
N048.00.51.931 E011.30.12.333 N048.01.12.876 E011.31.04.322
N048.01.12.876 E011.31.04.322 N048.01.34.992 E011.31.55.228
N048.01.34.992 E011.31.55.228 N048.01.58.253 E011.32.44.993
N048.01.58.253 E011.32.44.993 N048.02.22.634 E011.33.33.559
N048.02.22.634 E011.33.33.559 N048.02.48.000 E011.34.21.000
N048.02.48.000 E011.34.21.000 N048.05.37.000 E012.11.14.000
N048.05.37.000 E012.11.14.000 N048.05.27.923 E012.12.08.070
N048.05.27.923 E012.12.08.070 N048.05.20.255 E012.13.02.626
N048.05.20.255 E012.13.02.626 N048.05.13.857 E012.13.57.543
N048.05.13.857 E012.13.57.543 N048.05.08.736 E012.14.52.756
N048.05.08.736 E012.14.52.756 N048.05.04.898 E012.15.48.199
N048.05.04.898 E012.15.48.199 N048.05.02.347 E012.16.43.806
N048.05.02.347 E012.16.43.806 N048.05.01.087 E012.17.39.510
N048.05.01.087 E012.17.39.510 N048.05.01.119 E012.18.35.247
N048.05.01.119 E012.18.35.247 N048.05.02.443 E012.19.30.948
N048.05.02.443 E012.19.30.948 N048.05.05.058 E012.20.26.549
N048.05.05.058 E012.20.26.549 N048.05.08.959 E012.21.21.982
N048.05.08.959 E012.21.21.982 N048.05.14.144 E012.22.17.181
N048.05.14.144 E012.22.17.181 N048.05.20.605 E012.23.12.082
N048.05.20.605 E012.23.12.082 N048.05.28.335 E012.24.06.618
N048.05.28.335 E012.24.06.618 N048.05.37.324 E012.25.00.725
N048.05.37.324 E012.25.00.725 N048.05.47.562 E012.25.54.338
N048.05.47.562 E012.25.54.338 N048.05.59.038 E012.26.47.393
N048.05.59.038 E012.26.47.393 N048.06.11.736 E012.27.39.827
N048.06.11.736 E012.27.39.827 N048.06.25.642 E012.28.31.577
N048.06.25.642 E012.28.31.577 N048.06.40.739 E012.29.22.581
N048.06.40.739 E012.29.22.581 N048.06.57.009 E012.30.12.779
N048.06.57.009 E012.30.12.779 N048.07.14.434 E012.31.02.110
N048.07.14.434 E012.31.02.110 N048.07.32.992 E012.31.50.515
N048.07.32.992 E012.31.50.515 N048.07.52.660 E012.32.37.936
N048.07.52.660 E012.32.37.936 N048.08.13.417 E012.33.24.317
N048.08.13.417 E012.33.24.317 N048.08.35.236 E012.34.09.601
N048.08.35.236 E012.34.09.601 N048.08.58.091 E012.34.53.734
N048.08.58.091 E012.34.53.734 N048.09.21.956 E012.35.36.664
N048.09.21.956 E012.35.36.664 N048.09.46.802 E012.36.18.337
N048.09.46.802 E012.36.18.337 N048.10.12.599 E012.36.58.704
N048.10.12.599 E012.36.58.704 N048.10.39.316 E012.37.37.716
N048.10.39.316 E012.37.37.716 N048.11.06.922 E012.38.15.325
N048.11.06.922 E012.38.15.325 N048.11.35.382 E012.38.51.487
N048.11.35.382 E012.38.51.487 N048.12.04.664 E012.39.26.157
N048.12.04.664 E012.39.26.157 N048.12.34.732 E012.39.59.292
N048.12.34.732 E012.39.59.292 N048.13.05.550 E012.40.30.853
N048.13.05.550 E012.40.30.853 N048.13.37.000 E012.41.01.000
N048.13.37.000 E012.41.01.000 N048.08.50.000 E012.42.45.000
N048.08.50.000 E012.42.45.000 N048.03.09.000 E012.30.45.000
N048.03.09.000 E012.30.45.000 N048.02.52.000 E012.27.19.000
N048.02.52.000 E012.27.19.000 N048.01.27.000 E012.12.27.000
N048.01.27.000 E012.12.27.000 N048.01.34.853 E012.11.26.088
N048.01.34.853 E012.11.26.088 N048.01.43.979 E012.10.25.569
N048.01.43.979 E012.10.25.569 N048.01.54.383 E012.09.25.507
N048.01.54.383 E012.09.25.507 N048.02.06.056 E012.08.25.962
N048.02.06.056 E012.08.25.962 N048.02.19.000 E012.07.27.000
N048.02.19.000 E012.07.27.000 N048.00.07.000 E011.38.36.000
N048.00.07.000 E011.38.36.000 N047.59.35.327 E011.37.39.467
N047.59.35.327 E011.37.39.467 N047.59.04.983 E011.36.41.347
N047.59.04.983 E011.36.41.347 N047.58.36.001 E011.35.41.714
N047.58.36.001 E011.35.41.714 N047.58.08.414 E011.34.40.641
N047.58.08.414 E011.34.40.641 N047.57.42.254 E011.33.38.198
N047.57.42.254 E011.33.38.198 N047.57.17.554 E011.32.34.461
N047.57.17.554 E011.32.34.461 N047.56.54.341 E011.31.29.505
N047.56.54.341 E011.31.29.505 N047.56.32.643 E011.30.23.406
N047.56.32.643 E011.30.23.406 N047.56.12.486 E011.29.16.243
N047.56.12.486 E011.29.16.243 N047.55.53.892 E011.28.08.095
N047.55.53.892 E011.28.08.095 N047.55.36.885 E011.26.59.042
N047.55.36.885 E011.26.59.042 N047.55.21.484 E011.25.49.166
N047.55.21.484 E011.25.49.166 N047.55.07.708 E011.24.38.548
N047.55.07.708 E011.24.38.548 N047.54.55.571 E011.23.27.273
N047.54.55.571 E011.23.27.273 N047.54.45.089 E011.22.15.423
N047.54.45.089 E011.22.15.423 N047.54.36.274 E011.21.03.084
N047.54.36.274 E011.21.03.084 N047.54.29.137 E011.19.50.339
N047.54.29.137 E011.19.50.339 N047.54.23.684 E011.18.37.275
N047.54.23.684 E011.18.37.275 N047.54.19.924 E011.17.23.978
N047.54.19.924 E011.17.23.978 N047.54.17.861 E011.16.10.532
N047.54.17.861 E011.16.10.532 N047.54.17.496 E011.14.57.025
N047.54.17.496 E011.14.57.025 N047.54.18.830 E011.13.43.543
N047.54.18.830 E011.13.43.543 N047.54.21.862 E011.12.30.171
N047.54.21.862 E011.12.30.171 N047.54.26.589 E011.11.16.996
N047.54.26.589 E011.11.16.996 N047.54.33.004 E011.10.04.104
N047.54.33.004 E011.10.04.104 N047.54.41.100 E011.08.51.580
N047.54.41.100 E011.08.51.580 N047.54.50.867 E011.07.39.510
N047.54.50.867 E011.07.39.510 N047.55.02.295 E011.06.27.978
N047.55.02.295 E011.06.27.978 N047.55.15.369 E011.05.17.068
N047.55.15.369 E011.05.17.068 N047.55.30.075 E011.04.06.863
N047.55.30.075 E011.04.06.863 N047.55.46.395 E011.02.57.447
N047.55.46.395 E011.02.57.447 N047.56.04.310 E011.01.48.900
N047.56.04.310 E011.01.48.900 N047.56.23.798 E011.00.41.304
N047.56.23.798 E011.00.41.304 N047.56.44.838 E010.59.34.739
N047.56.44.838 E010.59.34.739 N047.57.07.404 E010.58.29.283
N047.57.07.404 E010.58.29.283 N047.57.31.469 E010.57.25.013
N047.57.31.469 E010.57.25.013 N047.57.57.000 E010.56.22.000
N047.57.57.000 E010.56.22.000 N048.01.15.000 E010.59.27.000
N048.36.03.000 E012.06.00.000 N048.36.20.724 E012.06.37.134
N048.36.20.724 E012.06.37.134 N048.36.37.452 E012.07.15.312
N048.36.37.452 E012.07.15.312 N048.36.53.295 E012.07.54.342
N048.36.53.295 E012.07.54.342 N048.37.08.234 E012.08.34.179
N048.37.08.234 E012.08.34.179 N048.37.22.251 E012.09.14.773
N048.37.22.251 E012.09.14.773 N048.37.35.330 E012.09.56.077
N048.37.35.330 E012.09.56.077 N048.37.47.454 E012.10.38.041
N048.37.47.454 E012.10.38.041 N048.37.58.610 E012.11.20.615
N048.37.58.610 E012.11.20.615 N048.38.08.783 E012.12.03.748
N048.38.08.783 E012.12.03.748 N048.38.17.961 E012.12.47.388
N048.38.17.961 E012.12.47.388 N048.38.26.134 E012.13.31.483
N048.38.26.134 E012.13.31.483 N048.38.33.292 E012.14.15.980
N048.38.33.292 E012.14.15.980 N048.38.39.426 E012.15.00.825
N048.38.39.426 E012.15.00.825 N048.38.44.528 E012.15.45.965
N048.38.44.528 E012.15.45.965 N048.38.48.593 E012.16.31.346
N048.38.48.593 E012.16.31.346 N048.38.51.616 E012.17.16.912
N048.38.51.616 E012.17.16.912 N048.38.53.593 E012.18.02.609
N048.38.53.593 E012.18.02.609 N048.38.54.521 E012.18.48.383
N048.38.54.521 E012.18.48.383 N048.38.54.400 E012.19.34.178
N048.38.54.400 E012.19.34.178 N048.38.53.230 E012.20.19.939
N048.38.53.230 E012.20.19.939 N048.38.51.012 E012.21.05.611
N048.38.51.012 E012.21.05.611 N048.38.47.748 E012.21.51.139
N048.38.47.748 E012.21.51.139 N048.38.43.443 E012.22.36.469
N048.38.43.443 E012.22.36.469 N048.38.38.102 E012.23.21.546
N048.38.38.102 E012.23.21.546 N048.38.31.732 E012.24.06.315
N048.38.31.732 E012.24.06.315 N048.38.24.339 E012.24.50.724
N048.38.24.339 E012.24.50.724 N048.38.15.933 E012.25.34.719
N048.38.15.933 E012.25.34.719 N048.38.06.524 E012.26.18.247
N048.38.06.524 E012.26.18.247 N048.37.56.123 E012.27.01.255
N048.37.56.123 E012.27.01.255 N048.37.44.743 E012.27.43.693
N048.37.44.743 E012.27.43.693 N048.37.32.398 E012.28.25.510
N048.37.32.398 E012.28.25.510 N048.37.19.101 E012.29.06.654
N048.37.19.101 E012.29.06.654 N048.37.04.870 E012.29.47.078
N048.37.04.870 E012.29.47.078 N048.36.49.721 E012.30.26.733
N048.36.49.721 E012.30.26.733 N048.36.33.672 E012.31.05.571
N048.36.33.672 E012.31.05.571 N048.36.16.743 E012.31.43.546
N048.36.16.743 E012.31.43.546 N048.35.58.954 E012.32.20.612
N048.35.58.954 E012.32.20.612 N048.35.40.326 E012.32.56.727
N048.35.40.326 E012.32.56.727 N048.35.20.881 E012.33.31.846
N048.35.20.881 E012.33.31.846 N048.35.00.644 E012.34.05.928
N048.35.00.644 E012.34.05.928 N048.34.39.638 E012.34.38.932
N048.34.39.638 E012.34.38.932 N048.34.18.000 E012.35.11.000
N048.34.18.000 E012.35.11.000 N048.32.47.000 E012.33.10.000
N048.32.47.000 E012.33.10.000 N048.33.07.949 E012.32.40.690
N048.33.07.949 E012.32.40.690 N048.33.27.944 E012.32.09.893
N048.33.27.944 E012.32.09.893 N048.33.47.154 E012.31.37.981
N048.33.47.154 E012.31.37.981 N048.34.05.553 E012.31.04.997
N048.34.05.553 E012.31.04.997 N048.34.23.113 E012.30.30.989
N048.34.23.113 E012.30.30.989 N048.34.39.811 E012.29.56.004
N048.34.39.811 E012.29.56.004 N048.34.55.622 E012.29.20.093
N048.34.55.622 E012.29.20.093 N048.35.10.524 E012.28.43.306
N048.35.10.524 E012.28.43.306 N048.35.24.495 E012.28.05.696
N048.35.24.495 E012.28.05.696 N048.35.37.515 E012.27.27.316
N048.35.37.515 E012.27.27.316 N048.35.49.567 E012.26.48.221
N048.35.49.567 E012.26.48.221 N048.36.00.632 E012.26.08.465
N048.36.00.632 E012.26.08.465 N048.36.10.696 E012.25.28.107
N048.36.10.696 E012.25.28.107 N048.36.19.743 E012.24.47.204
N048.36.19.743 E012.24.47.204 N048.36.27.760 E012.24.05.813
N048.36.27.760 E012.24.05.813 N048.36.34.737 E012.23.23.994
N048.36.34.737 E012.23.23.994 N048.36.40.663 E012.22.41.806
N048.36.40.663 E012.22.41.806 N048.36.45.530 E012.21.59.310
N048.36.45.530 E012.21.59.310 N048.36.49.331 E012.21.16.567
N048.36.49.331 E012.21.16.567 N048.36.52.060 E012.20.33.637
N048.36.52.060 E012.20.33.637 N048.36.53.714 E012.19.50.582
N048.36.53.714 E012.19.50.582 N048.36.54.290 E012.19.07.463
N048.36.54.290 E012.19.07.463 N048.36.53.787 E012.18.24.342
N048.36.53.787 E012.18.24.342 N048.36.52.207 E012.17.41.280
N048.36.52.207 E012.17.41.280 N048.36.49.550 E012.16.58.340
N048.36.49.550 E012.16.58.340 N048.36.45.822 E012.16.15.582
N048.36.45.822 E012.16.15.582 N048.36.41.027 E012.15.33.068
N048.36.41.027 E012.15.33.068 N048.36.35.173 E012.14.50.857
N048.36.35.173 E012.14.50.857 N048.36.28.267 E012.14.09.011
N048.36.28.267 E012.14.09.011 N048.36.20.319 E012.13.27.589
N048.36.20.319 E012.13.27.589 N048.36.11.342 E012.12.46.651
N048.36.11.342 E012.12.46.651 N048.36.01.347 E012.12.06.254
N048.36.01.347 E012.12.06.254 N048.35.50.349 E012.11.26.456
N048.35.50.349 E012.11.26.456 N048.35.38.364 E012.10.47.314
N048.35.38.364 E012.10.47.314 N048.35.25.408 E012.10.08.884
N048.35.25.408 E012.10.08.884 N048.35.11.501 E012.09.31.220
N048.35.11.501 E012.09.31.220 N048.34.56.662 E012.08.54.375
N048.34.56.662 E012.08.54.375 N048.34.40.912 E012.08.18.403
N048.34.40.912 E012.08.18.403 N048.34.24.273 E012.07.43.354
N048.34.24.273 E012.07.43.354 N048.34.07.000 E012.07.09.000
N048.34.07.000 E012.07.09.000 N048.29.49.000 E011.11.55.000
N048.29.49.000 E011.11.55.000 N048.28.59.974 E011.11.29.833
N048.28.59.974 E011.11.29.833 N048.28.10.410 E011.11.07.189
N048.28.10.410 E011.11.07.189 N048.27.20.353 E011.10.47.144
N048.27.20.353 E011.10.47.144 N048.26.29.866 E011.10.29.723
N048.26.29.866 E011.10.29.723 N048.25.39.000 E011.10.15.000
N048.25.39.000 E011.10.15.000 N048.24.49.852 E011.10.03.284
N048.24.49.852 E011.10.03.284 N048.24.00.470 E011.09.54.051
N048.24.00.470 E011.09.54.051 N048.23.10.911 E011.09.47.288
N048.23.10.911 E011.09.47.288 N048.22.21.230 E011.09.43.002
N048.22.21.230 E011.09.43.002 N048.21.31.481 E011.09.41.196
N048.21.31.481 E011.09.41.196 N048.20.41.720 E011.09.41.868
N048.20.41.720 E011.09.41.868 N048.19.52.000 E011.09.45.000
N048.19.52.000 E011.09.45.000 N048.19.15.000 E011.02.19.000
N048.20.10.999 E011.02.14.157 N048.21.07.075 E011.02.12.110
N048.21.07.075 E011.02.12.110 N048.22.03.167 E011.02.12.688
N048.22.03.167 E011.02.12.688 N048.22.59.219 E011.02.15.891
N048.22.59.219 E011.02.15.891 N048.23.55.177 E011.02.21.721
N048.23.55.177 E011.02.21.721 N048.24.51.000 E011.02.30.000
N048.24.51.000 E011.02.30.000 N048.25.52.305 E011.02.42.175
N048.25.52.305 E011.02.42.175 N048.26.53.276 E011.02.57.693
N048.26.53.276 E011.02.57.693 N048.27.53.855 E011.03.16.364
N048.27.53.855 E011.03.16.364 N048.28.54.000 E011.03.38.000
N048.28.54.000 E011.03.38.000 N048.29.12.721 E011.04.10.603
N048.29.12.721 E011.04.10.603 N048.29.30.496 E011.04.44.391
N048.29.30.496 E011.04.44.391 N048.29.47.411 E011.05.19.166
N048.29.47.411 E011.05.19.166 N048.30.03.442 E011.05.54.880
N048.30.03.442 E011.05.54.880 N048.30.18.566 E011.06.31.482
N048.30.18.566 E011.06.31.482 N048.30.32.761 E011.07.08.921
N048.30.32.761 E011.07.08.921 N048.30.46.007 E011.07.47.141
N048.30.46.007 E011.07.47.141 N048.30.58.285 E011.08.26.090
N048.30.58.285 E011.08.26.090 N048.31.09.577 E011.09.05.710
N048.31.09.577 E011.09.05.710 N048.31.19.868 E011.09.45.947
N048.31.19.868 E011.09.45.947 N048.31.29.142 E011.10.26.742
N048.31.29.142 E011.10.26.742 N048.31.37.386 E011.11.08.037
N048.31.37.386 E011.11.08.037 N048.31.44.589 E011.11.49.773
N048.31.44.589 E011.11.49.773 N048.31.50.740 E011.12.31.891
N048.31.50.740 E011.12.31.891 N048.31.55.830 E011.13.14.329
N048.31.55.830 E011.13.14.329 N048.32.00.000 E011.13.57.000
N048.07.20.000 E011.05.10.000 N048.07.05.006 E011.05.47.042
N048.07.05.006 E011.05.47.042 N048.06.50.985 E011.06.24.924
N048.06.50.985 E011.06.24.924 N048.06.37.937 E011.07.03.569
N048.06.37.937 E011.07.03.569 N048.06.25.879 E011.07.42.922
N048.06.25.879 E011.07.42.922 N048.06.14.829 E011.08.22.927
N048.06.14.829 E011.08.22.927 N048.06.04.802 E011.09.03.526
N048.06.04.802 E011.09.03.526 N048.05.55.813 E011.09.44.662
N048.05.55.813 E011.09.44.662 N048.05.47.876 E011.10.26.275
N048.05.47.876 E011.10.26.275 N048.05.41.000 E011.11.08.305
N048.05.41.000 E011.11.08.305 N048.05.35.196 E011.11.50.693
N048.05.35.196 E011.11.50.693 N048.05.30.473 E011.12.33.377
N048.05.30.473 E011.12.33.377 N048.05.26.837 E011.13.16.297
N048.05.26.837 E011.13.16.297 N048.05.24.293 E011.13.59.391
N048.05.24.293 E011.13.59.391 N048.05.22.845 E011.14.42.597
N048.05.22.845 E011.14.42.597 N048.05.22.495 E011.15.25.854
N048.05.22.495 E011.15.25.854 N048.05.23.244 E011.16.09.100
N048.05.23.244 E011.16.09.100 N048.05.25.090 E011.16.52.273
N048.05.25.090 E011.16.52.273 N048.05.28.031 E011.17.35.310
N048.05.28.031 E011.17.35.310 N048.05.32.063 E011.18.18.152
N048.05.32.063 E011.18.18.152 N048.05.37.179 E011.19.00.735
N048.05.37.179 E011.19.00.735 N048.05.43.373 E011.19.43.000
N048.05.43.373 E011.19.43.000 N048.05.50.635 E011.20.24.886
N048.05.50.635 E011.20.24.886 N048.05.58.956 E011.21.06.332
N048.05.58.956 E011.21.06.332 N048.06.08.323 E011.21.47.280
N048.06.08.323 E011.21.47.280 N048.06.18.723 E011.22.27.670
N048.06.18.723 E011.22.27.670 N048.06.30.141 E011.23.07.445
N048.06.30.141 E011.23.07.445 N048.06.42.561 E011.23.46.548
N048.06.42.561 E011.23.46.548 N048.06.55.965 E011.24.24.922
N048.06.55.965 E011.24.24.922 N048.07.10.333 E011.25.02.512
N048.07.10.333 E011.25.02.512 N048.07.25.645 E011.25.39.265
N048.07.25.645 E011.25.39.265 N048.07.41.880 E011.26.15.127
N048.07.41.880 E011.26.15.127 N048.07.59.013 E011.26.50.047
N048.07.59.013 E011.26.50.047 N048.08.17.000 E011.27.24.000
N048.08.17.000 E011.27.24.000 N048.12.34.000 E012.23.51.000
N048.12.34.000 E012.23.51.000 N048.13.22.634 E012.24.15.990
N048.13.22.634 E012.24.15.990 N048.14.11.839 E012.24.38.354
N048.14.11.839 E012.24.38.354 N048.15.01.508 E012.24.58.287
N048.15.01.508 E012.24.58.287 N048.15.51.590 E012.25.15.766
N048.15.51.590 E012.25.15.766 N048.16.42.000 E012.25.31.000
N048.16.42.000 E012.25.31.000 N048.17.31.003 E012.25.42.916
N048.17.31.003 E012.25.42.916 N048.18.20.214 E012.25.52.697
N048.18.20.214 E012.25.52.697 N048.19.09.608 E012.26.00.129
N048.19.09.608 E012.26.00.129 N048.19.59.134 E012.26.05.202
N048.19.59.134 E012.26.05.202 N048.20.48.743 E012.26.07.909
N048.20.48.743 E012.26.07.909 N048.21.38.383 E012.26.08.245
N048.21.38.383 E012.26.08.245 N048.22.28.000 E012.26.06.000
N048.22.28.000 E012.26.06.000 N048.22.53.000 E012.32.05.000
N048.22.53.000 E012.32.05.000 N048.21.51.473 E012.32.07.925
N048.21.51.473 E012.32.07.925 N048.20.49.917 E012.32.07.817
N048.20.49.917 E012.32.07.817 N048.19.48.400 E012.32.04.551
N048.19.48.400 E012.32.04.551 N048.18.47.000 E012.31.58.000
N048.18.47.000 E012.31.58.000 N048.17.10.000 E012.35.04.000
N048.17.10.000 E012.35.04.000 N048.16.44.745 E012.34.43.750
N048.16.44.745 E012.34.43.750 N048.16.19.991 E012.34.22.159
N048.16.19.991 E012.34.22.159 N048.15.55.797 E012.33.59.194
N048.15.55.797 E012.33.59.194 N048.15.32.195 E012.33.34.887
N048.15.32.195 E012.33.34.887 N048.15.09.219 E012.33.09.274
N048.15.09.219 E012.33.09.274 N048.14.46.902 E012.32.42.390
N048.14.46.902 E012.32.42.390 N048.14.25.274 E012.32.14.274
N048.14.25.274 E012.32.14.274 N048.14.04.366 E012.31.44.966
N048.14.04.366 E012.31.44.966 N048.13.44.208 E012.31.14.508
N048.13.44.208 E012.31.14.508 N048.13.24.828 E012.30.42.942
N048.13.24.828 E012.30.42.942 N048.13.06.252 E012.30.10.313
N048.13.06.252 E012.30.10.313 N048.12.48.508 E012.29.36.668
N048.12.48.508 E012.29.36.668 N048.12.31.619 E012.29.02.054
N048.12.31.619 E012.29.02.054 N048.12.15.611 E012.28.26.520
N048.12.15.611 E012.28.26.520 N048.12.00.504 E012.27.50.115
N048.12.00.504 E012.27.50.115 N048.11.46.321 E012.27.12.892
N048.11.46.321 E012.27.12.892 N048.11.33.081 E012.26.34.901
N048.11.33.081 E012.26.34.901 N048.11.20.802 E012.25.56.198
N048.11.20.802 E012.25.56.198 N048.11.09.503 E012.25.16.836
N048.11.09.503 E012.25.16.836 N048.10.59.198 E012.24.36.871
N048.10.59.198 E012.24.36.871 N048.10.49.903 E012.23.56.357
N048.10.49.903 E012.23.56.357 N048.10.41.630 E012.23.15.354
N048.10.41.630 E012.23.15.354 N048.10.34.391 E012.22.33.917
N048.10.34.391 E012.22.33.917 N048.10.28.195 E012.21.52.105
N048.10.28.195 E012.21.52.105 N048.10.23.053 E012.21.09.976
N048.10.23.053 E012.21.09.976 N048.10.18.970 E012.20.27.590
N048.10.18.970 E012.20.27.590 N048.10.16.000 E012.19.45.000
N048.10.16.000 E012.19.45.000 N048.06.22.000 E011.28.35.000
N048.06.22.000 E011.28.35.000 N048.06.03.985 E011.27.58.069
N048.06.03.985 E011.27.58.069 N048.05.46.812 E011.27.20.260
N048.05.46.812 E011.27.20.260 N048.05.30.524 E011.26.41.591
N048.05.30.524 E011.26.41.591 N048.05.15.141 E011.26.02.108
N048.05.15.141 E011.26.02.108 N048.05.00.683 E011.25.21.858
N048.05.00.683 E011.25.21.858 N048.04.47.165 E011.24.40.889
N048.04.47.165 E011.24.40.889 N048.04.34.605 E011.23.59.250
N048.04.34.605 E011.23.59.250 N048.04.23.016 E011.23.16.990
N048.04.23.016 E011.23.16.990 N048.04.12.413 E011.22.34.161
N048.04.12.413 E011.22.34.161 N048.04.02.809 E011.21.50.813
N048.04.02.809 E011.21.50.813 N048.03.54.215 E011.21.06.998
N048.03.54.215 E011.21.06.998 N048.03.46.640 E011.20.22.768
N048.03.46.640 E011.20.22.768 N048.03.40.095 E011.19.38.175
N048.03.40.095 E011.19.38.175 N048.03.34.586 E011.18.53.273
N048.03.34.586 E011.18.53.273 N048.03.30.121 E011.18.08.116
N048.03.30.121 E011.18.08.116 N048.03.26.705 E011.17.22.756
N048.03.26.705 E011.17.22.756 N048.03.24.342 E011.16.37.247
N048.03.24.342 E011.16.37.247 N048.03.23.034 E011.15.51.645
N048.03.23.034 E011.15.51.645 N048.03.22.783 E011.15.06.002
N048.03.22.783 E011.15.06.002 N048.03.23.589 E011.14.20.374
N048.03.23.589 E011.14.20.374 N048.03.25.453 E011.13.34.814
N048.03.25.453 E011.13.34.814 N048.03.28.370 E011.12.49.377
N048.03.28.370 E011.12.49.377 N048.03.32.338 E011.12.04.117
N048.03.32.338 E011.12.04.117 N048.03.37.353 E011.11.19.087
N048.03.37.353 E011.11.19.087 N048.03.43.407 E011.10.34.341
N048.03.43.407 E011.10.34.341 N048.03.50.494 E011.09.49.932
N048.03.50.494 E011.09.49.932 N048.03.58.606 E011.09.05.913
N048.03.58.606 E011.09.05.913 N048.04.07.733 E011.08.22.337
N048.04.07.733 E011.08.22.337 N048.04.17.863 E011.07.39.256
N048.04.17.863 E011.07.39.256 N048.04.28.986 E011.06.56.720
N048.04.28.986 E011.06.56.720 N048.04.41.087 E011.06.14.780
N048.04.41.087 E011.06.14.780 N048.04.54.153 E011.05.33.487
N048.04.54.153 E011.05.33.487 N048.05.08.167 E011.04.52.890
N048.05.08.167 E011.04.52.890 N048.05.23.114 E011.04.13.037
N048.05.23.114 E011.04.13.037 N048.05.39.000 E011.03.34.000
N048.05.39.000 E011.03.34.000 N048.07.20.000 E011.05.10.000
N048.40.10.000 E011.11.00.000 N048.40.04.000 E011.19.15.000
N048.40.04.000 E011.19.15.000 N048.40.03.000 E011.47.39.000
N048.40.03.000 E011.47.39.000 N048.40.02.000 E012.08.41.000
N048.40.02.000 E012.08.41.000 N048.40.00.000 E012.14.24.000
N048.40.00.000 E012.14.24.000 N048.34.55.000 E012.34.26.000
N048.34.55.000 E012.34.26.000 N048.24.51.000 E012.36.52.000
N048.24.51.000 E012.36.52.000 N048.21.14.000 E011.47.10.000
N048.21.14.000 E011.47.10.000 N048.17.27.000 E011.00.00.000
N048.17.27.000 E011.00.00.000 N048.19.11.000 E011.00.00.000
N048.19.11.000 E011.00.00.000 N048.21.50.000 E011.00.00.000
N048.21.50.000 E011.00.00.000 N048.23.43.000 E010.57.14.000
N048.23.43.000 E010.57.14.000 N048.26.36.000 E010.52.55.000
N048.26.36.000 E010.52.55.000 N048.30.20.000 E010.47.15.000
N048.30.20.000 E010.47.15.000 N048.35.06.000 E010.51.00.000
N048.35.06.000 E010.51.00.000 N048.37.28.000 E010.54.16.000
N048.37.28.000 E010.54.16.000 N048.40.00.000 E010.58.00.000
N048.40.00.000 E010.58.00.000 N048.40.10.000 E011.11.00.000
N048.24.51.000 E012.36.52.000 N048.16.25.000 E012.40.00.000
N048.16.25.000 E012.40.00.000 N048.15.59.000 E012.41.50.000
N048.15.59.000 E012.41.50.000 N048.14.51.000 E012.40.34.000
N048.14.51.000 E012.40.34.000 N048.08.50.000 E012.42.45.000
N048.08.50.000 E012.42.45.000 N048.03.09.000 E012.30.45.000
N048.03.09.000 E012.30.45.000 N048.02.50.000 E012.27.27.000
N048.02.50.000 E012.27.27.000 N047.59.56.000 E011.56.38.000
N047.59.56.000 E011.56.38.000 N047.57.49.000 E011.35.47.000
N047.57.49.000 E011.35.47.000 N047.55.43.000 E011.15.46.000
N047.55.43.000 E011.15.46.000 N047.54.57.000 E011.06.12.000
N047.54.57.000 E011.06.12.000 N048.01.50.000 E011.00.00.000
N048.01.50.000 E011.00.00.000 N048.13.18.000 E011.00.00.000
N048.13.18.000 E011.00.00.000 N048.17.27.000 E011.00.00.000
N048.17.27.000 E011.00.00.000 N048.21.14.000 E011.47.10.000
N048.21.14.000 E011.47.10.000 N048.24.51.000 E012.36.52.000
N048.25.39.000 E011.31.17.000 N048.27.23.000 E011.52.27.000
N048.27.23.000 E011.52.27.000 N048.25.56.000 E011.56.42.000
N048.25.56.000 E011.56.42.000 N048.26.17.000 E012.01.23.000
N048.26.17.000 E012.01.23.000 N048.17.12.000 E012.02.55.000
N048.17.12.000 E012.02.55.000 N048.15.17.000 E011.40.25.000
N048.15.17.000 E011.40.25.000 N048.16.54.000 E011.38.27.000
N048.16.54.000 E011.38.27.000 N048.16.25.000 E011.32.09.000
N048.16.25.000 E011.32.09.000 N048.17.12.000 E011.32.05.000
N048.17.12.000 E011.32.05.000 N048.25.39.000 E011.31.17.000
N051.13.53.206 E006.37.03.404 N051.14.16.939 E006.36.34.658
N051.11.27.826 E006.32.00.426 N051.11.51.558 E006.31.31.705
N000.00.00.000 E000.00.00.000 N000.00.00.000 E000.00.00.000
N048.20.19.504 E011.43.34.355 N048.20.12.576 E011.42.05.061
N048.20.05.629 E011.40.35.774 N048.19.58.662 E011.39.06.493
N048.19.51.676 E011.37.37.220 N048.19.44.671 E011.36.07.953
N048.19.37.647 E011.34.38.693 N048.19.30.603 E011.33.09.440
N048.19.23.541 E011.31.40.194 N048.19.16.458 E011.30.10.954
N048.19.09.357 E011.28.41.722 N048.19.02.237 E011.27.12.496
N048.18.55.097 E011.25.43.277 N048.18.47.938 E011.24.14.066
N048.18.40.760 E011.22.44.861 N048.18.33.562 E011.21.15.663
N048.18.26.346 E011.19.46.472 N048.18.19.110 E011.18.17.288
N048.18.11.855 E011.16.48.111 N048.18.04.581 E011.15.18.941
N048.18.32.599 E011.27.17.558 N048.19.31.875 E011.27.07.432
N048.18.11.122 E011.22.49.922 N048.19.10.398 E011.22.39.798
N000.00.00.000 E000.00.00.000 N000.00.00.000 E000.00.00.000
N048.21.39.062 E011.44.33.837 N048.21.32.144 E011.43.04.503
N048.21.25.207 E011.41.35.175 N048.21.18.251 E011.40.05.855
N048.21.11.275 E011.38.36.541 N048.21.04.280 E011.37.07.233
N048.20.57.266 E011.35.37.933 N048.20.50.233 E011.34.08.640
N048.20.43.180 E011.32.39.353 N048.20.36.109 E011.31.10.073
N048.20.29.018 E011.29.40.800 N048.20.21.907 E011.28.11.534
N048.20.14.778 E011.26.42.275 N048.20.07.629 E011.25.13.022
N048.20.00.461 E011.23.43.777 N048.19.53.274 E011.22.14.538
N048.19.46.067 E011.20.45.307 N048.19.38.842 E011.19.16.083
N048.19.31.597 E011.17.46.865 N048.19.24.332 E011.16.17.655
N048.19.52.269 E011.28.16.598 N048.20.51.545 E011.28.06.468
N048.19.30.823 E011.23.48.840 N048.20.30.099 E011.23.38.712
N000.00.00.000 E000.00.00.000 N000.00.00.000 E000.00.00.000
N048.22.07.631 E011.50.45.584 N048.22.14.449 E011.52.14.953
N048.22.21.248 E011.53.44.328 N048.22.28.028 E011.55.13.710
N048.22.34.788 E011.56.43.098 N048.22.41.529 E011.58.12.493
N048.22.48.251 E011.59.41.895 N048.22.54.953 E012.01.11.303
N048.23.01.637 E012.02.40.717 N048.23.08.300 E012.04.10.138
N048.23.14.945 E012.05.39.566 N048.23.21.570 E012.07.09.000
N048.23.28.176 E012.08.38.440 N048.23.34.763 E012.10.07.887
N048.23.41.330 E012.11.37.340 N048.23.47.878 E012.13.06.800
N048.23.54.407 E012.14.36.266 N048.24.00.916 E012.16.05.738
N048.24.07.406 E012.17.35.217 N048.24.13.877 E012.19.04.702
N048.23.51.207 E012.07.03.929 N048.22.51.933 E012.07.14.069
N048.24.10.967 E012.11.32.269 N048.23.11.693 E012.11.42.410
N000.00.00.000 E000.00.00.000 N000.00.00.000 E000.00.00.000
N048.20.48.101 E011.49.45.937 N048.20.54.909 E011.51.15.269
N048.21.01.698 E011.52.44.607 N048.21.08.467 E011.54.13.952
N048.21.15.217 E011.55.43.304 N048.21.21.948 E011.57.12.662
N048.21.28.660 E011.58.42.027 N048.21.35.352 E012.00.11.398
N048.21.42.025 E012.01.40.775 N048.21.48.679 E012.03.10.159
N048.21.55.313 E012.04.39.550 N048.22.01.928 E012.06.08.947
N048.22.08.524 E012.07.38.350 N048.22.15.101 E012.09.07.760
N048.22.21.658 E012.10.37.176 N048.22.28.196 E012.12.06.599
N048.22.34.714 E012.13.36.028 N048.22.41.214 E012.15.05.463
N048.22.47.693 E012.16.34.905 N048.22.54.154 E012.18.04.352